timeout 1800 cbmc --unwind 90 /tmp/array1_40.c
CBMC version 5.4 64-bit x86_64 linux
Parsing /tmp/array1_40.c
file <command-line> line 0: <command-line>:0:0: warning: "__STDC_VERSION__" redefined
file <command-line> line 0: <built-in>: note: this is the location of the previous definition
Converting
Type-checking array1_40
Generating GOTO Program
Adding CPROVER library (x86_64)
Function Pointer Removal
Partial Inlining
Generic Property Instrumentation
Starting Bounded Model Checking
Unwinding loop init_nd.0 iteration 1 (90 max) file /tmp/array1_40.c line 19 function init_nd thread 0
Unwinding loop init_nd.0 iteration 2 (90 max) file /tmp/array1_40.c line 19 function init_nd thread 0
Unwinding loop init_nd.0 iteration 3 (90 max) file /tmp/array1_40.c line 19 function init_nd thread 0
Unwinding loop init_nd.0 iteration 4 (90 max) file /tmp/array1_40.c line 19 function init_nd thread 0
Unwinding loop init_nd.0 iteration 5 (90 max) file /tmp/array1_40.c line 19 function init_nd thread 0
Unwinding loop init_nd.0 iteration 6 (90 max) file /tmp/array1_40.c line 19 function init_nd thread 0
Unwinding loop init_nd.0 iteration 7 (90 max) file /tmp/array1_40.c line 19 function init_nd thread 0
Unwinding loop init_nd.0 iteration 8 (90 max) file /tmp/array1_40.c line 19 function init_nd thread 0
Unwinding loop init_nd.0 iteration 9 (90 max) file /tmp/array1_40.c line 19 function init_nd thread 0
Unwinding loop init_nd.0 iteration 10 (90 max) file /tmp/array1_40.c line 19 function init_nd thread 0
Unwinding loop init_nd.0 iteration 11 (90 max) file /tmp/array1_40.c line 19 function init_nd thread 0
Unwinding loop init_nd.0 iteration 12 (90 max) file /tmp/array1_40.c line 19 function init_nd thread 0
Unwinding loop init_nd.0 iteration 13 (90 max) file /tmp/array1_40.c line 19 function init_nd thread 0
Unwinding loop init_nd.0 iteration 14 (90 max) file /tmp/array1_40.c line 19 function init_nd thread 0
Unwinding loop init_nd.0 iteration 15 (90 max) file /tmp/array1_40.c line 19 function init_nd thread 0
Unwinding loop init_nd.0 iteration 16 (90 max) file /tmp/array1_40.c line 19 function init_nd thread 0
Unwinding loop init_nd.0 iteration 17 (90 max) file /tmp/array1_40.c line 19 function init_nd thread 0
Unwinding loop init_nd.0 iteration 18 (90 max) file /tmp/array1_40.c line 19 function init_nd thread 0
Unwinding loop init_nd.0 iteration 19 (90 max) file /tmp/array1_40.c line 19 function init_nd thread 0
Unwinding loop init_nd.0 iteration 20 (90 max) file /tmp/array1_40.c line 19 function init_nd thread 0
Unwinding loop init_nd.0 iteration 21 (90 max) file /tmp/array1_40.c line 19 function init_nd thread 0
Unwinding loop init_nd.0 iteration 22 (90 max) file /tmp/array1_40.c line 19 function init_nd thread 0
Unwinding loop init_nd.0 iteration 23 (90 max) file /tmp/array1_40.c line 19 function init_nd thread 0
Unwinding loop init_nd.0 iteration 24 (90 max) file /tmp/array1_40.c line 19 function init_nd thread 0
Unwinding loop init_nd.0 iteration 25 (90 max) file /tmp/array1_40.c line 19 function init_nd thread 0
Unwinding loop init_nd.0 iteration 26 (90 max) file /tmp/array1_40.c line 19 function init_nd thread 0
Unwinding loop init_nd.0 iteration 27 (90 max) file /tmp/array1_40.c line 19 function init_nd thread 0
Unwinding loop init_nd.0 iteration 28 (90 max) file /tmp/array1_40.c line 19 function init_nd thread 0
Unwinding loop init_nd.0 iteration 29 (90 max) file /tmp/array1_40.c line 19 function init_nd thread 0
Unwinding loop init_nd.0 iteration 30 (90 max) file /tmp/array1_40.c line 19 function init_nd thread 0
Unwinding loop init_nd.0 iteration 31 (90 max) file /tmp/array1_40.c line 19 function init_nd thread 0
Unwinding loop init_nd.0 iteration 32 (90 max) file /tmp/array1_40.c line 19 function init_nd thread 0
Unwinding loop init_nd.0 iteration 33 (90 max) file /tmp/array1_40.c line 19 function init_nd thread 0
Unwinding loop init_nd.0 iteration 34 (90 max) file /tmp/array1_40.c line 19 function init_nd thread 0
Unwinding loop init_nd.0 iteration 35 (90 max) file /tmp/array1_40.c line 19 function init_nd thread 0
Unwinding loop init_nd.0 iteration 36 (90 max) file /tmp/array1_40.c line 19 function init_nd thread 0
Unwinding loop init_nd.0 iteration 37 (90 max) file /tmp/array1_40.c line 19 function init_nd thread 0
Unwinding loop init_nd.0 iteration 38 (90 max) file /tmp/array1_40.c line 19 function init_nd thread 0
Unwinding loop init_nd.0 iteration 39 (90 max) file /tmp/array1_40.c line 19 function init_nd thread 0
Unwinding loop init_nd.0 iteration 40 (90 max) file /tmp/array1_40.c line 19 function init_nd thread 0
Unwinding loop init_nd.0 iteration 41 (90 max) file /tmp/array1_40.c line 19 function init_nd thread 0
Unwinding loop init_nd.0 iteration 42 (90 max) file /tmp/array1_40.c line 19 function init_nd thread 0
Unwinding loop init_nd.0 iteration 43 (90 max) file /tmp/array1_40.c line 19 function init_nd thread 0
Unwinding loop init_nd.0 iteration 44 (90 max) file /tmp/array1_40.c line 19 function init_nd thread 0
Unwinding loop init_nd.0 iteration 45 (90 max) file /tmp/array1_40.c line 19 function init_nd thread 0
Unwinding loop init_nd.0 iteration 46 (90 max) file /tmp/array1_40.c line 19 function init_nd thread 0
Unwinding loop init_nd.0 iteration 47 (90 max) file /tmp/array1_40.c line 19 function init_nd thread 0
Unwinding loop init_nd.0 iteration 48 (90 max) file /tmp/array1_40.c line 19 function init_nd thread 0
Unwinding loop init_nd.0 iteration 49 (90 max) file /tmp/array1_40.c line 19 function init_nd thread 0
Unwinding loop init_nd.0 iteration 50 (90 max) file /tmp/array1_40.c line 19 function init_nd thread 0
Unwinding loop init_nd.0 iteration 51 (90 max) file /tmp/array1_40.c line 19 function init_nd thread 0
Unwinding loop init_nd.0 iteration 52 (90 max) file /tmp/array1_40.c line 19 function init_nd thread 0
Unwinding loop init_nd.0 iteration 53 (90 max) file /tmp/array1_40.c line 19 function init_nd thread 0
Unwinding loop init_nd.0 iteration 54 (90 max) file /tmp/array1_40.c line 19 function init_nd thread 0
Unwinding loop init_nd.0 iteration 55 (90 max) file /tmp/array1_40.c line 19 function init_nd thread 0
Unwinding loop init_nd.0 iteration 56 (90 max) file /tmp/array1_40.c line 19 function init_nd thread 0
Unwinding loop init_nd.0 iteration 57 (90 max) file /tmp/array1_40.c line 19 function init_nd thread 0
Unwinding loop init_nd.0 iteration 58 (90 max) file /tmp/array1_40.c line 19 function init_nd thread 0
Unwinding loop init_nd.0 iteration 59 (90 max) file /tmp/array1_40.c line 19 function init_nd thread 0
Unwinding loop init_nd.0 iteration 60 (90 max) file /tmp/array1_40.c line 19 function init_nd thread 0
Unwinding loop init_nd.0 iteration 61 (90 max) file /tmp/array1_40.c line 19 function init_nd thread 0
Unwinding loop init_nd.0 iteration 62 (90 max) file /tmp/array1_40.c line 19 function init_nd thread 0
Unwinding loop init_nd.0 iteration 63 (90 max) file /tmp/array1_40.c line 19 function init_nd thread 0
Unwinding loop init_nd.0 iteration 64 (90 max) file /tmp/array1_40.c line 19 function init_nd thread 0
Unwinding loop init_nd.0 iteration 65 (90 max) file /tmp/array1_40.c line 19 function init_nd thread 0
Unwinding loop init_nd.0 iteration 66 (90 max) file /tmp/array1_40.c line 19 function init_nd thread 0
Unwinding loop init_nd.0 iteration 67 (90 max) file /tmp/array1_40.c line 19 function init_nd thread 0
Unwinding loop init_nd.0 iteration 68 (90 max) file /tmp/array1_40.c line 19 function init_nd thread 0
Unwinding loop init_nd.0 iteration 69 (90 max) file /tmp/array1_40.c line 19 function init_nd thread 0
Unwinding loop init_nd.0 iteration 70 (90 max) file /tmp/array1_40.c line 19 function init_nd thread 0
Unwinding loop init_nd.0 iteration 71 (90 max) file /tmp/array1_40.c line 19 function init_nd thread 0
Unwinding loop init_nd.0 iteration 72 (90 max) file /tmp/array1_40.c line 19 function init_nd thread 0
Unwinding loop init_nd.0 iteration 73 (90 max) file /tmp/array1_40.c line 19 function init_nd thread 0
Unwinding loop init_nd.0 iteration 74 (90 max) file /tmp/array1_40.c line 19 function init_nd thread 0
Unwinding loop init_nd.0 iteration 75 (90 max) file /tmp/array1_40.c line 19 function init_nd thread 0
Unwinding loop init_nd.0 iteration 76 (90 max) file /tmp/array1_40.c line 19 function init_nd thread 0
Unwinding loop init_nd.0 iteration 77 (90 max) file /tmp/array1_40.c line 19 function init_nd thread 0
Unwinding loop init_nd.0 iteration 78 (90 max) file /tmp/array1_40.c line 19 function init_nd thread 0
Unwinding loop init_nd.0 iteration 79 (90 max) file /tmp/array1_40.c line 19 function init_nd thread 0
Unwinding loop init_nd.0 iteration 80 (90 max) file /tmp/array1_40.c line 19 function init_nd thread 0
Unwinding loop init_data.0 iteration 1 (90 max) file /tmp/array1_40.c line 34 function init_data thread 0
Unwinding loop init_data.0 iteration 2 (90 max) file /tmp/array1_40.c line 34 function init_data thread 0
Unwinding loop init_data.0 iteration 3 (90 max) file /tmp/array1_40.c line 34 function init_data thread 0
Unwinding loop init_data.0 iteration 4 (90 max) file /tmp/array1_40.c line 34 function init_data thread 0
Unwinding loop init_data.0 iteration 5 (90 max) file /tmp/array1_40.c line 34 function init_data thread 0
Unwinding loop init_data.0 iteration 6 (90 max) file /tmp/array1_40.c line 34 function init_data thread 0
Unwinding loop init_data.0 iteration 7 (90 max) file /tmp/array1_40.c line 34 function init_data thread 0
Unwinding loop init_data.0 iteration 8 (90 max) file /tmp/array1_40.c line 34 function init_data thread 0
Unwinding loop init_data.0 iteration 9 (90 max) file /tmp/array1_40.c line 34 function init_data thread 0
Unwinding loop init_data.0 iteration 10 (90 max) file /tmp/array1_40.c line 34 function init_data thread 0
Unwinding loop init_data.0 iteration 11 (90 max) file /tmp/array1_40.c line 34 function init_data thread 0
Unwinding loop init_data.0 iteration 12 (90 max) file /tmp/array1_40.c line 34 function init_data thread 0
Unwinding loop init_data.0 iteration 13 (90 max) file /tmp/array1_40.c line 34 function init_data thread 0
Unwinding loop init_data.0 iteration 14 (90 max) file /tmp/array1_40.c line 34 function init_data thread 0
Unwinding loop init_data.0 iteration 15 (90 max) file /tmp/array1_40.c line 34 function init_data thread 0
Unwinding loop init_data.0 iteration 16 (90 max) file /tmp/array1_40.c line 34 function init_data thread 0
Unwinding loop init_data.0 iteration 17 (90 max) file /tmp/array1_40.c line 34 function init_data thread 0
Unwinding loop init_data.0 iteration 18 (90 max) file /tmp/array1_40.c line 34 function init_data thread 0
Unwinding loop init_data.0 iteration 19 (90 max) file /tmp/array1_40.c line 34 function init_data thread 0
Unwinding loop init_data.0 iteration 20 (90 max) file /tmp/array1_40.c line 34 function init_data thread 0
Unwinding loop init_data.0 iteration 21 (90 max) file /tmp/array1_40.c line 34 function init_data thread 0
Unwinding loop init_data.0 iteration 22 (90 max) file /tmp/array1_40.c line 34 function init_data thread 0
Unwinding loop init_data.0 iteration 23 (90 max) file /tmp/array1_40.c line 34 function init_data thread 0
Unwinding loop init_data.0 iteration 24 (90 max) file /tmp/array1_40.c line 34 function init_data thread 0
Unwinding loop init_data.0 iteration 25 (90 max) file /tmp/array1_40.c line 34 function init_data thread 0
Unwinding loop init_data.0 iteration 26 (90 max) file /tmp/array1_40.c line 34 function init_data thread 0
Unwinding loop init_data.0 iteration 27 (90 max) file /tmp/array1_40.c line 34 function init_data thread 0
Unwinding loop init_data.0 iteration 28 (90 max) file /tmp/array1_40.c line 34 function init_data thread 0
Unwinding loop init_data.0 iteration 29 (90 max) file /tmp/array1_40.c line 34 function init_data thread 0
Unwinding loop init_data.0 iteration 30 (90 max) file /tmp/array1_40.c line 34 function init_data thread 0
Unwinding loop init_data.0 iteration 31 (90 max) file /tmp/array1_40.c line 34 function init_data thread 0
Unwinding loop init_data.0 iteration 32 (90 max) file /tmp/array1_40.c line 34 function init_data thread 0
Unwinding loop init_data.0 iteration 33 (90 max) file /tmp/array1_40.c line 34 function init_data thread 0
Unwinding loop init_data.0 iteration 34 (90 max) file /tmp/array1_40.c line 34 function init_data thread 0
Unwinding loop init_data.0 iteration 35 (90 max) file /tmp/array1_40.c line 34 function init_data thread 0
Unwinding loop init_data.0 iteration 36 (90 max) file /tmp/array1_40.c line 34 function init_data thread 0
Unwinding loop init_data.0 iteration 37 (90 max) file /tmp/array1_40.c line 34 function init_data thread 0
Unwinding loop init_data.0 iteration 38 (90 max) file /tmp/array1_40.c line 34 function init_data thread 0
Unwinding loop init_data.0 iteration 39 (90 max) file /tmp/array1_40.c line 34 function init_data thread 0
Unwinding loop init_data.0 iteration 40 (90 max) file /tmp/array1_40.c line 34 function init_data thread 0
Unwinding loop init_data.0 iteration 1 (90 max) file /tmp/array1_40.c line 34 function init_data thread 0
Unwinding loop init_data.0 iteration 2 (90 max) file /tmp/array1_40.c line 34 function init_data thread 0
Unwinding loop init_data.0 iteration 3 (90 max) file /tmp/array1_40.c line 34 function init_data thread 0
Unwinding loop init_data.0 iteration 4 (90 max) file /tmp/array1_40.c line 34 function init_data thread 0
Unwinding loop init_data.0 iteration 5 (90 max) file /tmp/array1_40.c line 34 function init_data thread 0
Unwinding loop init_data.0 iteration 6 (90 max) file /tmp/array1_40.c line 34 function init_data thread 0
Unwinding loop init_data.0 iteration 7 (90 max) file /tmp/array1_40.c line 34 function init_data thread 0
Unwinding loop init_data.0 iteration 8 (90 max) file /tmp/array1_40.c line 34 function init_data thread 0
Unwinding loop init_data.0 iteration 9 (90 max) file /tmp/array1_40.c line 34 function init_data thread 0
Unwinding loop init_data.0 iteration 10 (90 max) file /tmp/array1_40.c line 34 function init_data thread 0
Unwinding loop init_data.0 iteration 11 (90 max) file /tmp/array1_40.c line 34 function init_data thread 0
Unwinding loop init_data.0 iteration 12 (90 max) file /tmp/array1_40.c line 34 function init_data thread 0
Unwinding loop init_data.0 iteration 13 (90 max) file /tmp/array1_40.c line 34 function init_data thread 0
Unwinding loop init_data.0 iteration 14 (90 max) file /tmp/array1_40.c line 34 function init_data thread 0
Unwinding loop init_data.0 iteration 15 (90 max) file /tmp/array1_40.c line 34 function init_data thread 0
Unwinding loop init_data.0 iteration 16 (90 max) file /tmp/array1_40.c line 34 function init_data thread 0
Unwinding loop init_data.0 iteration 17 (90 max) file /tmp/array1_40.c line 34 function init_data thread 0
Unwinding loop init_data.0 iteration 18 (90 max) file /tmp/array1_40.c line 34 function init_data thread 0
Unwinding loop init_data.0 iteration 19 (90 max) file /tmp/array1_40.c line 34 function init_data thread 0
Unwinding loop init_data.0 iteration 20 (90 max) file /tmp/array1_40.c line 34 function init_data thread 0
Unwinding loop init_data.0 iteration 21 (90 max) file /tmp/array1_40.c line 34 function init_data thread 0
Unwinding loop init_data.0 iteration 22 (90 max) file /tmp/array1_40.c line 34 function init_data thread 0
Unwinding loop init_data.0 iteration 23 (90 max) file /tmp/array1_40.c line 34 function init_data thread 0
Unwinding loop init_data.0 iteration 24 (90 max) file /tmp/array1_40.c line 34 function init_data thread 0
Unwinding loop init_data.0 iteration 25 (90 max) file /tmp/array1_40.c line 34 function init_data thread 0
Unwinding loop init_data.0 iteration 26 (90 max) file /tmp/array1_40.c line 34 function init_data thread 0
Unwinding loop init_data.0 iteration 27 (90 max) file /tmp/array1_40.c line 34 function init_data thread 0
Unwinding loop init_data.0 iteration 28 (90 max) file /tmp/array1_40.c line 34 function init_data thread 0
Unwinding loop init_data.0 iteration 29 (90 max) file /tmp/array1_40.c line 34 function init_data thread 0
Unwinding loop init_data.0 iteration 30 (90 max) file /tmp/array1_40.c line 34 function init_data thread 0
Unwinding loop init_data.0 iteration 31 (90 max) file /tmp/array1_40.c line 34 function init_data thread 0
Unwinding loop init_data.0 iteration 32 (90 max) file /tmp/array1_40.c line 34 function init_data thread 0
Unwinding loop init_data.0 iteration 33 (90 max) file /tmp/array1_40.c line 34 function init_data thread 0
Unwinding loop init_data.0 iteration 34 (90 max) file /tmp/array1_40.c line 34 function init_data thread 0
Unwinding loop init_data.0 iteration 35 (90 max) file /tmp/array1_40.c line 34 function init_data thread 0
Unwinding loop init_data.0 iteration 36 (90 max) file /tmp/array1_40.c line 34 function init_data thread 0
Unwinding loop init_data.0 iteration 37 (90 max) file /tmp/array1_40.c line 34 function init_data thread 0
Unwinding loop init_data.0 iteration 38 (90 max) file /tmp/array1_40.c line 34 function init_data thread 0
Unwinding loop init_data.0 iteration 39 (90 max) file /tmp/array1_40.c line 34 function init_data thread 0
Unwinding loop init_data.0 iteration 40 (90 max) file /tmp/array1_40.c line 34 function init_data thread 0
Unwinding loop sum.0 iteration 1 (90 max) file /tmp/array1_40.c line 48 function sum thread 0
Unwinding loop sum.0 iteration 2 (90 max) file /tmp/array1_40.c line 48 function sum thread 0
Unwinding loop sum.0 iteration 3 (90 max) file /tmp/array1_40.c line 48 function sum thread 0
Unwinding loop sum.0 iteration 4 (90 max) file /tmp/array1_40.c line 48 function sum thread 0
Unwinding loop sum.0 iteration 5 (90 max) file /tmp/array1_40.c line 48 function sum thread 0
Unwinding loop sum.0 iteration 6 (90 max) file /tmp/array1_40.c line 48 function sum thread 0
Unwinding loop sum.0 iteration 7 (90 max) file /tmp/array1_40.c line 48 function sum thread 0
Unwinding loop sum.0 iteration 8 (90 max) file /tmp/array1_40.c line 48 function sum thread 0
Unwinding loop sum.0 iteration 9 (90 max) file /tmp/array1_40.c line 48 function sum thread 0
Unwinding loop sum.0 iteration 10 (90 max) file /tmp/array1_40.c line 48 function sum thread 0
Unwinding loop sum.0 iteration 11 (90 max) file /tmp/array1_40.c line 48 function sum thread 0
Unwinding loop sum.0 iteration 12 (90 max) file /tmp/array1_40.c line 48 function sum thread 0
Unwinding loop sum.0 iteration 13 (90 max) file /tmp/array1_40.c line 48 function sum thread 0
Unwinding loop sum.0 iteration 14 (90 max) file /tmp/array1_40.c line 48 function sum thread 0
Unwinding loop sum.0 iteration 15 (90 max) file /tmp/array1_40.c line 48 function sum thread 0
Unwinding loop sum.0 iteration 16 (90 max) file /tmp/array1_40.c line 48 function sum thread 0
Unwinding loop sum.0 iteration 17 (90 max) file /tmp/array1_40.c line 48 function sum thread 0
Unwinding loop sum.0 iteration 18 (90 max) file /tmp/array1_40.c line 48 function sum thread 0
Unwinding loop sum.0 iteration 19 (90 max) file /tmp/array1_40.c line 48 function sum thread 0
Unwinding loop sum.0 iteration 20 (90 max) file /tmp/array1_40.c line 48 function sum thread 0
Unwinding loop sum.0 iteration 21 (90 max) file /tmp/array1_40.c line 48 function sum thread 0
Unwinding loop sum.0 iteration 22 (90 max) file /tmp/array1_40.c line 48 function sum thread 0
Unwinding loop sum.0 iteration 23 (90 max) file /tmp/array1_40.c line 48 function sum thread 0
Unwinding loop sum.0 iteration 24 (90 max) file /tmp/array1_40.c line 48 function sum thread 0
Unwinding loop sum.0 iteration 25 (90 max) file /tmp/array1_40.c line 48 function sum thread 0
Unwinding loop sum.0 iteration 26 (90 max) file /tmp/array1_40.c line 48 function sum thread 0
Unwinding loop sum.0 iteration 27 (90 max) file /tmp/array1_40.c line 48 function sum thread 0
Unwinding loop sum.0 iteration 28 (90 max) file /tmp/array1_40.c line 48 function sum thread 0
Unwinding loop sum.0 iteration 29 (90 max) file /tmp/array1_40.c line 48 function sum thread 0
Unwinding loop sum.0 iteration 30 (90 max) file /tmp/array1_40.c line 48 function sum thread 0
Unwinding loop sum.0 iteration 31 (90 max) file /tmp/array1_40.c line 48 function sum thread 0
Unwinding loop sum.0 iteration 32 (90 max) file /tmp/array1_40.c line 48 function sum thread 0
Unwinding loop sum.0 iteration 33 (90 max) file /tmp/array1_40.c line 48 function sum thread 0
Unwinding loop sum.0 iteration 34 (90 max) file /tmp/array1_40.c line 48 function sum thread 0
Unwinding loop sum.0 iteration 35 (90 max) file /tmp/array1_40.c line 48 function sum thread 0
Unwinding loop sum.0 iteration 36 (90 max) file /tmp/array1_40.c line 48 function sum thread 0
Unwinding loop sum.0 iteration 37 (90 max) file /tmp/array1_40.c line 48 function sum thread 0
Unwinding loop sum.0 iteration 38 (90 max) file /tmp/array1_40.c line 48 function sum thread 0
Unwinding loop sum.0 iteration 39 (90 max) file /tmp/array1_40.c line 48 function sum thread 0
Unwinding loop sum.0 iteration 40 (90 max) file /tmp/array1_40.c line 48 function sum thread 0
Unwinding loop sum.0 iteration 1 (90 max) file /tmp/array1_40.c line 48 function sum thread 0
Unwinding loop sum.0 iteration 2 (90 max) file /tmp/array1_40.c line 48 function sum thread 0
Unwinding loop sum.0 iteration 3 (90 max) file /tmp/array1_40.c line 48 function sum thread 0
Unwinding loop sum.0 iteration 4 (90 max) file /tmp/array1_40.c line 48 function sum thread 0
Unwinding loop sum.0 iteration 5 (90 max) file /tmp/array1_40.c line 48 function sum thread 0
Unwinding loop sum.0 iteration 6 (90 max) file /tmp/array1_40.c line 48 function sum thread 0
Unwinding loop sum.0 iteration 7 (90 max) file /tmp/array1_40.c line 48 function sum thread 0
Unwinding loop sum.0 iteration 8 (90 max) file /tmp/array1_40.c line 48 function sum thread 0
Unwinding loop sum.0 iteration 9 (90 max) file /tmp/array1_40.c line 48 function sum thread 0
Unwinding loop sum.0 iteration 10 (90 max) file /tmp/array1_40.c line 48 function sum thread 0
Unwinding loop sum.0 iteration 11 (90 max) file /tmp/array1_40.c line 48 function sum thread 0
Unwinding loop sum.0 iteration 12 (90 max) file /tmp/array1_40.c line 48 function sum thread 0
Unwinding loop sum.0 iteration 13 (90 max) file /tmp/array1_40.c line 48 function sum thread 0
Unwinding loop sum.0 iteration 14 (90 max) file /tmp/array1_40.c line 48 function sum thread 0
Unwinding loop sum.0 iteration 15 (90 max) file /tmp/array1_40.c line 48 function sum thread 0
Unwinding loop sum.0 iteration 16 (90 max) file /tmp/array1_40.c line 48 function sum thread 0
Unwinding loop sum.0 iteration 17 (90 max) file /tmp/array1_40.c line 48 function sum thread 0
Unwinding loop sum.0 iteration 18 (90 max) file /tmp/array1_40.c line 48 function sum thread 0
Unwinding loop sum.0 iteration 19 (90 max) file /tmp/array1_40.c line 48 function sum thread 0
Unwinding loop sum.0 iteration 20 (90 max) file /tmp/array1_40.c line 48 function sum thread 0
Unwinding loop sum.0 iteration 21 (90 max) file /tmp/array1_40.c line 48 function sum thread 0
Unwinding loop sum.0 iteration 22 (90 max) file /tmp/array1_40.c line 48 function sum thread 0
Unwinding loop sum.0 iteration 23 (90 max) file /tmp/array1_40.c line 48 function sum thread 0
Unwinding loop sum.0 iteration 24 (90 max) file /tmp/array1_40.c line 48 function sum thread 0
Unwinding loop sum.0 iteration 25 (90 max) file /tmp/array1_40.c line 48 function sum thread 0
Unwinding loop sum.0 iteration 26 (90 max) file /tmp/array1_40.c line 48 function sum thread 0
Unwinding loop sum.0 iteration 27 (90 max) file /tmp/array1_40.c line 48 function sum thread 0
Unwinding loop sum.0 iteration 28 (90 max) file /tmp/array1_40.c line 48 function sum thread 0
Unwinding loop sum.0 iteration 29 (90 max) file /tmp/array1_40.c line 48 function sum thread 0
Unwinding loop sum.0 iteration 30 (90 max) file /tmp/array1_40.c line 48 function sum thread 0
Unwinding loop sum.0 iteration 31 (90 max) file /tmp/array1_40.c line 48 function sum thread 0
Unwinding loop sum.0 iteration 32 (90 max) file /tmp/array1_40.c line 48 function sum thread 0
Unwinding loop sum.0 iteration 33 (90 max) file /tmp/array1_40.c line 48 function sum thread 0
Unwinding loop sum.0 iteration 34 (90 max) file /tmp/array1_40.c line 48 function sum thread 0
Unwinding loop sum.0 iteration 35 (90 max) file /tmp/array1_40.c line 48 function sum thread 0
Unwinding loop sum.0 iteration 36 (90 max) file /tmp/array1_40.c line 48 function sum thread 0
Unwinding loop sum.0 iteration 37 (90 max) file /tmp/array1_40.c line 48 function sum thread 0
Unwinding loop sum.0 iteration 38 (90 max) file /tmp/array1_40.c line 48 function sum thread 0
Unwinding loop sum.0 iteration 39 (90 max) file /tmp/array1_40.c line 48 function sum thread 0
Unwinding loop sum.0 iteration 40 (90 max) file /tmp/array1_40.c line 48 function sum thread 0
size of program expression: 3633 steps
simple slicing removed 6 assignments
Generated 161 VCC(s), 1 remaining after simplification
Passing problem to propositional reduction
converting SSA
Running propositional reduction
Post-processing
Solving with MiniSAT 2.2.1 with simplifier
28673 variables, 85102 clauses
SAT checker: instance is UNSATISFIABLE
Runtime decision procedure: 138.264s
VERIFICATION SUCCESSFUL

